[
	{
		"title": "Rum Beer & Football",
		"description":
			"A unique platform created with React, Python, Flask, and Firebase. Upon registration, players are assigned a FIFA-style card with a baseline stat of 60. Every week, there's an opportunity to adjust these stats through a community voting system based on recent game performances. Beyond individual stats, the app offers detailed team metrics, and as a testament to its growing popularity, over 100 players have already registered.",
		"iconUrls": [
			"https://www.svgrepo.com/show/358128/react.svg",
			"https://cdn3.iconfinder.com/data/icons/logos-and-brands-adobe/512/267_Python-512.png",
            "https://cdn4.iconfinder.com/data/icons/google-i-o-2016/512/google_firebase-2-512.png"
		],
		"url": "https://nydraft.com"
	},
	{
		"title": "FIFA Pickup Soccer App",
		"description":
			"Tailored for pickup soccer players, this app enables registration to obtain a FIFA-style card with an initial stat of 60. Each weekend, players' performances influence stat adjustments through community voting. A simple yet engaging approach to monitor and compare soccer skills in a fun, interactive way. Recently developed and ready for user engagement.",
		"iconUrls": ["https://www.svgrepo.com/show/358128/react.svg","https://cdn4.iconfinder.com/data/icons/google-i-o-2016/512/google_firebase-2-512.png"],
		"url": "https://yuriy-soccer-app-production.web.app/"
	},
	{
		"title": "Jogalavida",
		"description":
			"Founded in 2017, Jogalavida is not just a soccer brand, but a growing community resonating with soccer enthusiasts. Through engaging content on Instagram and YouTube, it bridges the love for the game with cultural references. Our merchandise features shirts that reflect global soccer nuances. Every design and video, crafted with tools like After Effects, Premiere Pro, and Photoshop, contributes to our unique identity.",
		"iconUrls": ["https://upload.wikimedia.org/wikipedia/commons/thumb/a/af/Adobe_Photoshop_CC_icon.svg/2101px-Adobe_Photoshop_CC_icon.svg.png","https://upload.wikimedia.org/wikipedia/commons/thumb/4/40/Adobe_Premiere_Pro_CC_icon.svg/2101px-Adobe_Premiere_Pro_CC_icon.svg.png","https://upload.wikimedia.org/wikipedia/commons/thumb/c/cb/Adobe_After_Effects_CC_icon.svg/2101px-Adobe_After_Effects_CC_icon.svg.png"],
		"url":"https://linktr.ee/jogalavida"
	},
	{
		"title": "Halo Infinite Stats Bot",
		"description":
			"A Twitter bot crafted with Python and powered by the HaloDot API. Users can tweet specific commands to the bot, and in response, it delivers tailored stats based on their query. From player rankings to match outcomes, it offers real-time insights directly on Twitter, simplifying stats retrieval without leaving the platform. A blend of gaming and modern-day social interactions.",
		"iconUrls": ["https://cdn3.iconfinder.com/data/icons/logos-and-brands-adobe/512/267_Python-512.png"],
		"url": "https://twitter.com/halo_stats_bot"
	},
	{
		"title": "Apex Legends Stats Bot",
		"description":
			"A Twitter bot devised with Python, tapping into a dedicated API for Apex Legends. Users can swiftly get their game stats by tweeting specific commands. From champion choices to recent match outcomes, it seamlessly delivers real-time insights. Experience the convenience of accessing your Apex performance metrics without navigating away from Twitter.",
		"iconUrls": ["https://cdn3.iconfinder.com/data/icons/logos-and-brands-adobe/512/267_Python-512.png"],
		"url": "https://twitter.com/ApexLegendsBot"
	}
]